TITLE: Bill of Materials
BOM NO: 05_043603-b.csv
DATE: 03/17/2017
DESIGN: 02_043603b_top
TEMPLATE: Z:\allegro\v166_site\cdssetup\template.bom
CALLOUT: C:\Users\jpacamar\Downloads\20-043603-01B\20_043603b\worklib\02_043603b_top\bom\043603a.callouts

ITEM#,Qty,WW_PN,DESCRIPTION," VALUE",JEDEC_TYPE,TOL,VOLTAGE,WATTAGE,LOCATION,MFG," MFG_PN",HLM_STATUS,STOCKROOM_WL,STOCKROOM_GT,STOCKROOM_LK,STOCKROOM_GBO,STOCKROOM_NSH,CUSTOM_PART,DNI
1,1,08_043603b,PCB,?,?,?,?,?,?,Analog Devices Supplied,08_043603b,N/A,?,?,?,?,?,?,?
3,1,E018085,IC-ADI ZERO DRFT SINGLE SUPPLY RAIL TO RAIL I/O OP AMP," AD8628ARZ",SO8,N/A,N/A,?,A1,ADI," AD8628ARZ",REL,N/A,N/A,N/A,N/A,1002690,?,?
4,12,E020966,CAP CER X5R," 10uF",C0402,20,6.3V,N/A,"C1,C2,C5,C13,C15,C17,C19,C21,C26,C30,C32,C34",TDK," C1005X5R0J106M050BC",REL,N/A,N/A,N/A,N/A,N/A,?,?
5,5,E007449,"CAP CER X5R, GENERAL PURPOSE"," 1uF",C0402,10,6.3V,N/A,"C7,C8,C10,C12,C29",MURATA," GRM155R60J105KE19D",REL,A004-0011-072,40302DG788,N/A,163_CAB3,7002750,?,?
6,15,E015036,CAP CER X7R," 0.1uF",C0603,10,16V,N/A,"C3,C4,C6,C9,C11,C14,C16,C18,C20,C22,C27,C28,C31,C33,C35",AVX," 0603YC104KAT2A",REL,N/A,N/A,N/A,N/A,7000340,?,?
8,1,E012419,"CAP CER C0G(NP0), GENERAL PURPOSE"," 1000pF",C0402,5,50V,N/A,C24,MURATA," GRM1555C1H102JA01",REL,N/A,40302DG776,N/A,106_BIN2-2B,7002363,?,?
9,1,E012615,"CAP CER C0G(NP0), GENERAL PURPOSE"," 220pF",C0402,5,50V,N/A,C25,MURATA," GRM1555C1H221JA01D",REL,N/A,N/A,N/A,N/A,7002872,?,?
10,7,E021001,DIODE SCHOTTKY," BAT54C",SOT23,N/A,30V,N/A,"D1,D2,D3,D4,D5,D6,D7",FAIRCHILD SEMICONDUCTOR," BAT54C",REL,N/A,N/A,N/A,N/A,N/A,?,?
11,1,E018073,LED 1.6X0.8MM RED 640NM (CLEAR)," APT1608SRCPRV",LED0603,N/A,N/A,0.075W,DS1,KINGBRIGHT," APT1608SRCPRV",REL,N/A,N/A,N/A,N/A,7003734,?,?
13,1,E005952,CONN-PCB HEADER 3 POS," 22-28-4033",CNMOLEX22-28-4033,N/A,N/A,N/A,P1,MOLEX," 22-28-4033",REL,N/A,N/A,N/A,N/A,6002173,?,?
14,1,E006383,CONN-PCB BERG HDR DOUBLE STR MALE 6P," TSW-103-08-G-D",CNSAMTEC2X3H330LD36,N/A,N/A,N/A,P2,SAMTEC," TSW-103-08-G-D",REL,ADD_TO_STOCK_1,N/A,N/A,N/A,6002406,?,?
15,1,E027152,"CONN-PCB 6POS RECEPTACLE 25MIL SQ POST DUAL ROW ST, 10MM SOLDER TAIL, 2.54MM PITCH"," SSQ-103-03-T-D",CNSAMTECSSQ-103-XX-X-D,N/A,N/A,N/A,P3,SAMTEC INC.," SSQ-103-03-T-D",REL,N/A,N/A,N/A,N/A,N/A,?,?
16,1,E027150,"CONN-PCB 6POS RECEPTACLE 25MIL SQ POST SINGLE ROW ST, 10MM SOLDER TAIL,  2.54MM PITCH"," SSQ-106-03-T-S",CNSAMTECSSQ-106-XX-X-S,N/A,N/A,N/A,P4,SAMTEC INC.," SSQ-106-03-T-S",REL,N/A,N/A,N/A,N/A,N/A,?,?
17,2,E027149,"CONN-PCB 8POS RECEPTACLE 25MIL SQ POST SINGLE ROW ST, 10MM SOLDER TAIL,  2.54MM PITCH"," SSQ-108-03-T-S",CNSAMTECSSQ-108-XX-X-S,N/A,N/A,N/A,"P5,P7",SAMTEC INC.," SSQ-108-03-T-S",REL,N/A,N/A,N/A,N/A,N/A,?,?
18,1,E027151,"CONN-PCB 10POS RECEPTACLE 25MIL SQ POST SINGLE ROW ST, 10MM SOLDER TAIL, 2.54MM PITCH"," SSQ-110-03-T-S",CNSAMTECSSQ-110-XX-X-S,N/A,N/A,N/A,P6,SAMTEC INC.," SSQ-110-03-T-S",REL,N/A,N/A,N/A,N/A,N/A,?,?
19,1,E015992,"CONN-PCB TERMINAL BLOCK 5MM PITCH, 4MM SOLDER TAIL"," CTB5000/4",CN1X4H394,N/A,N/A,N/A,P8,CAMDENBOSS LTD," CTB5000/4",REL,N/A,N/A,N/A,N/A,6001890,?,?
20,1,E018862,TRAN N-CHAN HEXFET POWER MOSFET," IRLMS2002TRPBF",SOT23_6-3,N/A,20V,N/A,Q1,INFINEON TECHNOLOGIES AG," IRLMS2002TRPBF",REL,N/A,N/A,N/A,N/A,1004624,?,?
21,4,E010279,RES PRECISION THICK FILM CHIP," 100K",R0603,1,50V,1/10W,"R1,R2,R4,R15",PANASONIC," ERJ-3EKF1003V",REL,A003-0032-128,41816DG576,N/A,N/A,N/A,?,?
22,1,E021125,RES METAL FILM HIGH REL," 8.87K",R0603,0.1,N/A,1/10W,R10,PANASONIC," ERA-3AEB8871V",REL,N/A,N/A,N/A,N/A,N/A,?,?
23,2,E003671,RES PRECISION THICK FILM CHIP R0603," 10K",R0603,1,N/A,1/10W,"R11,R36",PANASONIC," ERJ-3EKF1002V",REL,A003-0032-006,N/A,FEC 911-355,1517_CAB3,7000401,?,?
24,1,E020454,RES METAL FILM HIGH REL," 39.2K",R0805,0.1,N/A,1/8W,R12,PANASONIC," ERA-6AEB3922V",REL,N/A,N/A,N/A,N/A,N/A,?,?
25,1,E010949,RES ULTRA PRECISION THIN FILM CHIP," 110K",R0805,0.1,N/A,1/8W,R13,"SUSUMU CO, LTD"," RG2012P-114-B-T5",REL,N/A,N/A,N/A,N/A,7005966,?,?
26,1,E028525,"RES THICK FILM CHIP, STANDARD"," 2.74MEG",R0603,1,N/A,1/10W,R14,VISHAY," CRCW06032M74FKEA",REL,N/A,N/A,N/A,N/A,N/A,?,?
27,1,E028402,RES THICK FILM CHIP HIGH VOLTAGE," 33MEG",R2512H31,1,N/A,1W,R16,VISHAY," CRHV2512AF33M0FKE5",REL,N/A,N/A,N/A,N/A,N/A,?,?
28,2,E026824,RES HIGH POWER PRECISION THIN FILM," 8.25",R0805,0.1,N/A,1/10W,"R17,R19",TE CONNECTIVITY," RN73C2A8R25BTDF",REL,N/A,N/A,N/A,N/A,N/A,?,?
30,2,E014315,RES THIN FILM NON-MAGNETIC," 5K",R0805,0.1,N/A,1/5W,"R18,R20",VISHAY PRECISION GROUP," PNM0805E5001BST5",REL,N/A,N/A,N/A,N/A,N/A,?,?
31,1,E003563,RES PRECISION THICK FILM CHIP," 20",R0805,1,N/A,1/8W,R21,PANASONIC," ERJ-6ENF20R0V",REL,A003-0027-089,41816DG625,N/A,N/A,7006649,?,?
32,1,E026034,RES PRECISION HIGH POWER," 71.5",R0805,0.1,N/A,1/4W,R22,TE CONNECTIVITY," RP73PF2A71R5B",REL,N/A,N/A,N/A,N/A,N/A,?,?
33,1,E026825,"RES HIGH POWER, PRECISION THIN FILM"," 10",R0805H20,0.1,N/A,1W,R23,VISHAY," PCAN0805E10R0BST5",REL,N/A,N/A,N/A,N/A,N/A,?,?
34,14,E003668,RES PRECISION THICK FILM CHIP R0603," 100",R0603,1,N/A,1/10W,"R3,R5,R6,R7,R8,R9,R24,R25,R27,R28,R31,R32,R37,R38",PANASONIC," ERJ-3EKF1000V",REL,A003-0032-003,41816DG308,FEC 911-112,1514_CAB3,7005700,?,?
35,1,E003269,RES PRECISION THICK FILM CHIP R1206," 37.4",R1206,1,N/A,1/4W,R26,PANASONIC," ERJ-8ENF37R4V",REL,A003-0018-103,41816DG066,N/A,N/A,7007397,?,?
36,2,E015126,RES PULSE PROOF THICK FILM CHIP," 10K",R0603,1,N/A,1/4W,"R29,R30",VISHAY PRECISION GROUP," CRCW060310K0FKEAHP",REL,N/A,N/A,N/A,N/A,7005881,?,?
37,3,E004152,RES THIN FILM CHIP," 0",R0805,N/A,N/A,1/10W,"R33,R34,R35",MULTICOMP (SPC)," MC 0.1W 0805 0R",REL,N/A,N/A,N/A,N/A,7005370,?,?
38,1,E016530,SWITCH TACT SPST NO," FSM2JSMA",SWSMSQ236H185,N/A,N/A,N/A,S2,TE CONNECTIVITY LTD," FSM2JSMA",REL,N/A,N/A,N/A,N/A,6003232,?,?
39,1,E025853,IC-ADI 12-BIT HIGH OUTPUT CURRENT SOURCE," ADN8810ACPZ",QFN24_4X4_PAD2_1X2_1,N/A,N/A,?,U1,ANALOG DEVICES," ADN8810ACPZ",REL,N/A,N/A,N/A,N/A,N/A,?,?
40,1,E025987,IC 1-101400-01 DIGITAL OUTPUT TEMPERATURE AND HUMIDITY SENSOR," SHT30-DIS-B2.5KS",DFN8_2_5X2_5_PAD1_8X1_1,N/A,N/A,?,U10,SENSIRION," SHT30-DIS-B2.5KS",REL,N/A,N/A,N/A,N/A,N/A,?,?
41,1,E025852,IC AIR CONTAMINANT DETECTOR," TGS8100",TGS8100,N/A,N/A,?,U2,FIGARO," TGS8100",NON-PREF,N/A,N/A,N/A,N/A,N/A,?,?
42,2,E020439,IC-ADI LOGIC CONTROLLED HIGH-SIDE POWER SWITCH," ADP196ACPZN",DFN6_2X2_PAD1_6X1,N/A,N/A,?,"U3,U4",ADI," ADP196ACPZN",REL,N/A,N/A,N/A,N/A,N/A,?,?
43,1,E021632,IC-ADI CMOS LOW QUIESCENT CURRENT," ADP124ARHZ-2.5",MSOP8_PAD2_16X1_73,N/A,N/A,?,U5,ADI," ADP124ARHZ-2.5",REL,N/A,N/A,N/A,N/A,N/A,?,?
44,1,E017544,"IC-ADI ULTRA LOW NOISE, HIGH ACCURACY VREF"," ADR4540BRZ",SO8,N/A,N/A,?,U6,ADI," ADR4540BRZ",REL,N/A,N/A,N/A,N/A,1003975,?,?
45,1,E021726,"IC-ADI 3-OHM, CMOS ANALOG SINGLE 8-CH MUX"," ADG758BCPZ",QFN20_4X4_PAD2_1X2_1,N/A,N/A,?,U7,ADI," ADG758BCPZ",REL,N/A,N/A,N/A,N/A,N/A,?,?
46,1,E014585,"IC-ADI CMOS,DUAL 2:1 MUX/SPDT AUDIO SWITCH"," ADG884BRMZ",RM10,N/A,N/A,?,U8,ADI," ADG884BRMZ",REL,N/A,N/A,N/A,N/A,1003451,?,?
47,1,E024959,IC-ADI 16-BIT LOWER POWER PULSAR ADC," AD7988-1BRMZ",RM10,N/A,N/A,?,U9,ANALOG DEVICES," AD7988-1BRMZ",REL,N/A,N/A,N/A,N/A,N/A,?,?

Mechanical Parts
ITEM#,Qty,WW_PN,DESCRIPTION," VALUE",JEDEC_TYPE,TOL,VOLTAGE,WATTAGE,LOCATION,MFG," MFG_PN",HLM_STATUS,STOCKROOM_WL,STOCKROOM_GT,STOCKROOM_LK,STOCKROOM_GBO,STOCKROOM_NSH,CUSTOM_PART,DNI
2,2,M000389,"SOCKET, 2POS, 0.100 PITCH,CONN SHUNT"," ?",JPF1X2L200W100H240P100,?,?,?,?,SAMTEC," SNT-100-BK-G",?,A011-0001-036,41909JH005,?,?,?,?,?
3,4,M018674,"PIN, RECEPT FOR 0.015-0.025 PIN SIZE, 0.142 PIN LENGTH"," ?",N/A,?,?,?,?,MILL-MAX," 0667-0-15-15-30-27-10-0",REL,N/A,N/A,N/A,N/A,N/A,?,?


The following components are part of the PCB or are NOT to be installed
ITEM#,Qty,WW_PN,DESCRIPTION," VALUE",JEDEC_TYPE,TOL,VOLTAGE,WATTAGE,LOCATION,MFG," MFG_PN",HLM_STATUS,STOCKROOM_WL,STOCKROOM_GT,STOCKROOM_LK,STOCKROOM_GBO,STOCKROOM_NSH,CUSTOM_PART,DNI
 2,10,E000947,CONN-PCB TST PNT RED," RED",CNLOOPTP,N/A,N/A,N/A,"+2.5V,+5V_ARD,4.096V,5V,AGND,IOREF,RS+,TP2,VH,VRS",COMPONENTS CORPORATION," TP-104-01-02",REL,A012-0018-043,40313JH104,N/A,N/A,N/A,?,DNI
 7,1,E015036,CAP CER X7R," 0.1uF",C0603,10,16V,N/A,C23,AVX," 0603YC104KAT2A",REL,N/A,N/A,N/A,N/A,7000340,?,DNI
 12,1,E026030,"MOD VOC SENSOR P-TYPE, ALT_SYMBOLS IS FOR 125MIL AND BELOW BRD AND USE 4X M018674"," VOC-MF1",MVOC-MF1,N/A,N/A,N/A,M1,ALPHASENSE," VOC-MF1",REL,N/A,N/A,N/A,N/A,N/A,?,DNI
 29,2,E018836,DO NOT INSTALL R_SPACER_500_D37 COMBO," TBD_SPACER_500_D37",R_SPACER_500_D37,TBD_SPACER_500_D37,N/A,TBD_SPACER_500_D37,"R17_SPACER,R19_SPACER",TBD," TBD_SPACER_500_D37",NON-PREF,N/A,N/A,N/A,N/A,N/A,?,DNI
 Callouts File:C:\Users\jpacamar\Downloads\20-043603-01B\20_043603b\worklib\02_043603b_top\bom\043603a.callouts

