﻿Frequency,Noise Gain,(Cin + Cf) / Cf,Op Amp Gain,(Cin || Cf) (Rin || Rf) </br> Zero
3485.453996328937,1.006016532189685,1.43042,458.4403508454559,1.0115698666384885
3649.7183824741255,1.006588211727059,1.43042,437.75227960205115,1.0126791148054535
3821.724310634809,1.007213301074881,1.43042,417.99299762295186,1.0138939863928609
4001.836628445853,1.007896609894053,1.43042,399.12062875143573,1.0152243956678526
4190.437378281414,1.0086433454490256,1.43042,381.09518285311333,1.016681159436321
4387.926607618035,1.009459138449427,1.43042,363.8784715624601,1.0182760737755931
4594.723217588982,1.010350069128636,1.43042,347.4340279049294,1.0200219962516168
4811.265851529709,1.0113226932068395,1.43042,331.7270296255264,1.021932933813027
5038.013825399179,1.0123840672992073,1.43042,316.72422606152975,1.0240241365195986
5275.448102050601,1.0135417732299996,1.43042,302.39386840317786,1.0263121972175953
5524.07231141812,1.014803940600027,1.43042,288.70564319154425,1.0288151572180275
5784.413818783433,1.016179266827744,1.43042,275.6306089074636,1.0315526179645556
6057.024843388256,1.0176770337435435,1.43042,263.14113550919603,1.034545858594501
6342.483629765372,1.019307119663654,1.43042,251.21084677949918,1.0378179591981325
6641.395674272813,1.021080005706425,1.43042,239.81456534490022,1.0413939294673782
6954.395009432817,1.0230067749429985,1.43042,228.9282602312105,1.0453008422951238
7282.145548799807,1.0250991028013552,1.43042,218.52899681976777,1.0495679717406234
7625.342495210064,1.0273692369742466,1.43042,208.59488906858132,1.0542269346164967
7984.713815400139,1.0298299649266922,1.43042,199.1050538616597,1.0593118347804589
8361.021784121906,1.0324945669691452,1.43042,190.03956734851909,1.0648594090337973
8755.064601029513,1.0353767527725044,1.43042,181.3794231345085,1.0709091733435219
9167.678083767863,1.0384905791681656,1.43042,173.10649218154944,1.0775035679225717
9599.737440853896,1.0418503471203215,1.43042,165.20348427863428,1.0846880995306856
10052.1591281112,1.0454704759010756,1.43042,157.65391094256995,1.0925114792074937
10525.902792595678,1.0493653527657005,1.43042,150.4420496126033,1.101025753530684
11021.973308135623,1.0535491568397202,1.43042,143.5529090084191,1.1102864274186612
11541.422906803826,1.058035656514335,1.43042,136.9721955302067,1.1203525764827647
12085.353410842883,1.062837980420805,1.43042,130.68628059260573,1.131286946992703
12654.918569777896,1.067968363029796,1.43042,124.68216880175888,1.143156041663414
13251.326507673895,1.0734378670999118,1.43042,118.94746690652012,1.1560301897129772
13875.842285728964,1.0792560865680492,1.43042,113.47035348083664,1.1699835999869281
14529.790585638646,1.0854308350023054,1.43042,108.23954932373755,1.1850943963969014
15214.558519423426,1.0919678263742891,1.43042,103.24428859502972,1.2014446354772272
15931.598571679297,1.0988703565769746,1.43042,98.4742907370341,1.2191203065108447
16682.43168049233,1.1061389957183974,1.43042,93.91973326340452,1.238211315396562
17468.65046355226,1.113771302640911,1.43042,89.5712255228713,1.2588114541961979
18291.922596308155,1.1217615742149856,1.43042,85.41978356620875,1.2810183590781536
19153.994349331602,1.1301006425928362,1.43042,81.45680625658963,1.3049334601236724
20056.694292390737,1.1387757336427853,1.43042,77.67405276499949,1.3306619271406879
21001.93717309188,1.1477703991020671,1.43042,74.06362158252777,1.358312616195208
21991.727978315914,1.1570645335017538,1.43042,70.61793116008054,1.3879980219830843
23028.16618706429,1.166634484602952,1.43042,67.32970225438802,1.4198342413948413
24113.45022373545,1.1764532629743294,1.43042,64.19194201915877,1.4539409536528496
25249.882121277744,1.1864908525477804,1.43042,61.197929834790614,1.4904414222167295
26439.872404109934,1.196714619697511,1.43042,58.341204822689065,1.529462523266944
27685.945201166684,1.20708981385173,1.43042,55.615554944678266,1.5711348050097618
28990.74359991444,1.2175801481699267,1.43042,53.01500754772383,1.615592581333156
30357.035252694317,1.2281484447318276,1.43042,50.53382118214637,1.6629740625262053
31787.718247283774,1.2387573253092812,1.43042,48.1664784997413,1.7134215249031595
33285.82725412935,1.2493699264115772,1.43042,45.90768002775135,1.7670815202978378
34854.53996328953,1.2599506161173377,1.43042,43.75233861540365,1.8241051255618335
36497.18382474142,1.2704656903443752,1.43042,41.69557436071292,1.884648231452146
38217.243106348265,1.2808840276634381,1.43042,39.73270984468772,1.9488718696622203
40018.36628445871,1.2911776844212945,1.43042,37.859265525701275,2.0169425762563655
41904.37378281432,1.3013224155923575,1.43042,36.07095517614187,2.0890327894215153
43879.266076180545,1.3112981111403452,1.43042,34.36368127413844,2.1653212792525136
45947.23217589003,1.3210891424138214,1.43042,32.73353029304087,2.245993607228965
48112.658515297306,1.330684617886441,1.43042,31.176767858703663,2.331242613107889
50380.138253992016,1.340078552075714,1.43042,29.689833768242536,2.421268927127051
52754.481020506246,1.349269955479191,1.43042,28.2693368830578,2.516281505666817
55240.72311418145,1.3582628566738064,1.43042,26.912049923238815,2.616498188830921
57844.13818783459,1.3670662702346374,1.43042,25.61490420003416,2.7221462787574224
60570.24843388283,1.3756941258263902,1.43042,24.37498432822262,2.8334631378409405
63424.836297654,1.3841651747592905,1.43042,23.189522961452948,2.9506968064200914
66413.95674272843,1.3925028905923922,1.43042,22.055895591538267,3.07410663984689
69543.95009432848,1.400735380163573,1.43042,20.971615447919394,3.203963965198359
72821.4554879984,1.4088953209012702,1.43042,19.934328526660355,3.3405527582082417
76253.42495210099,1.4170199396116567,1.43042,18.94180876996735,3.484170341284942
79847.13815400175,1.4251510473171651,1.43042,17.99195340782696,3.6351281037391683
83610.21784121943,1.4333351443203857,1.43042,17.082778463383093,3.7937522455717807
87550.64601029553,1.4416236096433566,1.43042,16.212414413506004,3.960384546370552
91676.78083767905,1.4500729895012425,1.43042,15.379101986018936,4.135383161036879
95997.3744085394,1.4587454006663672,1.43042,14.58118806559444,4.319123444212863
100521.59128111244,1.467709066630056,1.43042,13.817121671783363,4.51199880540928
105259.02792595724,1.4770390075687871,1.43042,13.0854499653873,4.714421596949223
110219.7330813567,1.4868179095072867,1.43042,12.384814233854762,4.926824036944046
115414.22906803874,1.4971372040564692,1.43042,11.713945803019918,5.1496591696108505
120853.53410842933,1.5080983981068168,1.43042,11.071661821765144,5.383401865327098
126549.18569777948,1.51981470344859,1.43042,10.456860868502377,5.6285498629004564
132513.2650767395,1.5324130302553767,1.43042,9.86851833408685,5.885624856613145
138758.42285729022,1.5460364267974889,1.43042,9.305681545124239,6.155173630681555
145297.90585638708,1.5608470721691194,1.43042,8.767464604639034,6.437769243855665
152145.5851942349,1.57702996135673,1.43042,8.253042943514975,6.734012266969905
159315.98571679366,1.594797465672297,1.43042,7.761647595473078,7.044532076349006
166824.316804924,1.6143950107395812,1.43042,7.292559229767171,7.369988206069861
174686.50463552336,1.6361081950616838,1.43042,6.845101998081459,7.711071762184238
182919.22596308234,1.6602717837202468,1.43042,6.418637273870993,8.068506902118202
191539.94349331682,1.6872811671471388,1.43042,6.01255738198331,8.44305238258265
200566.9429239082,1.7176070936438597,1.43042,5.6262794321879035,8.835503179456028
210019.37173091967,1.7518147953975132,1.43042,5.259239380696407,9.246692183235458
219917.27978316005,1.7905890746015365,1.43042,4.910886447655853,9.677491973796531
230281.66187064385,1.8347675642647776,1.43042,4.580678015175013,10.128816678355244
241134.5022373555,1.8853853254450987,1.43042,4.268075119513798,10.601623916688268
252498.82121277848,1.943735334435542,1.43042,3.972538633080183,11.096916837840308
264398.7240411004,2.0114514588029753,1.43042,3.6935262079139792,11.615746252729947
276859.45201166795,2.0906234971127033,1.43042,3.4304900239990985,12.159212867258612
289907.43599914556,2.1839580539111534,1.43042,3.182875355016021,12.728469620731092
303570.35252694436,2.2950044689239504,1.43042,2.9501199331748507,13.324724134611287
317877.182472839,2.4284704796183583,1.43042,2.7316540656586423,13.949241276863356
332858.2725412948,2.5906518711880553,1.43042,2.526901429805703,14.603345847367084
348545.39963289665,2.7899724017492966,1.43042,2.3352804539001593,15.288425390147184
364971.8382474156,3.037501509298812,1.43042,2.1562061762345452,16.00593313842002
382172.4310634841,3.34684996592074,1.43042,1.98909246731243,16.75739109873831
400183.66284458863,3.7313148692182687,1.43042,1.8333544985026857,17.544393280805373
419043.73782814486,4.191770780331285,1.43042,1.6884113445241826,18.368609079835807
438792.6607618072,4.680518225426169,1.43042,1.5536886158867849,19.23178681865981
459472.3217589021,5.03593898500384,1.43042,1.4286210297009554,20.13575745710454
481126.58515297493,4.9985418146217935,1.43042,1.3126548418860493,21.082438476538076
503801.38253992214,4.489136215405623,1.43042,1.205250079592026,22.073837947830963
527544.8102050645,3.753836617982862,1.43042,1.1058825285653626,23.11205879137751
552407.2311418166,3.0505778108000583,1.43042,1.014045445386382,24.19930323822472
578441.3818783481,2.4745036975438848,1.43042,0.9292509783418077,25.33787750178165
605702.4843388306,2.0254561209276227,1.43042,0.8510312927458317,26.530196670027685
634248.3629765424,1.6778200500745455,1.43042,0.7789394065536951,27.778789828604463
664139.5674272869,1.4062270721327934,1.43042,0.7125497500591379,29.08630542566519
695439.5009432874,1.1910104517956401,1.43042,0.6514584693976515,30.455516889866864
728214.5548799868,1.0178995361985979,1.43042,0.5952834976530773,31.889328513427138
762534.2495210128,0.8766824291355694,1.43042,0.5436644198082273,33.39078161272915
798471.3815400205,0.7600124142120549,1.43042,0.4962621588449928,34.963060979545844
836102.1784121975,0.6625359135295585,1.43042,0.452758510247916,36.60950163657111
875506.4601029586,0.5802912071168532,1.43042,0.41285555124995077,38.33359591159013
916767.8083767939,0.5102997181805062,1.43042,0.3762749496112932,40.13900084529694
959973.7440853976,0.450287380693492,1.43042,0.3427571947444539,42.02954594847453
1005215.9128111282,0.39849272338896063,1.43042,0.3120607717622979,44.00924132499322
1052590.2792595765,0.353532900525979,1.43042,0.2839612966698715,46.08228617785952
1102197.3308135713,0.31430881024068186,1.43042,0.2582506285546553,48.253077716358995
1154142.290680392,0.2799369110459127,1.43042,0.23473597233546234,50.52622048318804
1208535.3410842982,0.24969952610424184,1.43042,0.21323898346611783,52.90653612135981
1265491.8569778,0.22300812996114144,1.43042,0.1935948839952328,55.39907360160186
1325132.6507674004,0.19937587773820054,1.43042,0.17565159758080262,58.00911993194069
1387584.2285729079,0.17839680169388167,1.43042,0.15926890945848363,60.742211372189814
1452979.0585638767,0.15972987839341782,1.43042,0.1443176559660942,63.604145177129986
1521455.8519423553,0.1430866965313425,1.43042,0.13067894702796434,66.60099189329053
1593159.857167943,0.12822181663351542,1.43042,0.11824342398994808,69.73910823541581
1668243.1680492468,0.11492516463999293,1.43042,0.1069105543544868,73.02515056992988
1746865.0463552407,0.10301597761902812,1.43042,0.0965879642780838,76.46608903399965
1829192.2596308307,0.0923379451870077,1.43042,0.08719080914259836,80.06922232014595
1915399.434933176,0.0827552803193445,1.43042,0.07864118207795519,83.84219315776224
2005669.42923909,0.07414951871498926,1.43042,0.07086755997814843,87.79300452438008
2100193.717309205,0.06641689393228536,1.43042,0.06380428629620051,91.93003662106766
2199172.7978316094,0.059466171113767945,1.43042,0.057391089709248055,96.26206464796867
2302816.6187064475,0.05321684872139987,1.43042,0.051572637595774226,100.79827741768614
2411345.0223735645,0.04759765774548947,1.43042,0.04629812314860427,105.54829684599252
2524988.2121277945,0.042545303059911395,1.43042,0.04152088484741472,110.52219836120916
2643987.2404110143,0.038003403214828486,1.43042,0.03719805692373724,115.73053227554553
2768594.52011669,0.033921593886048054,1.43042,0.03329024936350205,121.18434616373045
2899074.3599914666,0.030254767096785835,1.43042,0.029761255904125015,126.8952082964032
3035703.5252694553,0.026962423681067396,1.43042,0.026577788395316774,132.87523217796982
3178771.8247284023,0.024008120633574014,1.43042,0.023709235808409425,139.13710224097306
3328582.7254129606,0.02135899826475038,1.43042,0.021127446103525713,145.69410075147692
3485453.9963289797,0.018985374663452532,1.43042,0.01880652910417862,152.56013598253602
3649718.38247417,0.01686039702465622,1.43042,0.016722678492004907,159.74977171550952
3821724.3106348556,0.014959741052080176,1.43042,0.014854011026635461,167.2782581317955
4001836.6284459014,0.013261350991594277,1.43042,0.013180421121778632,175.16156416051183
4190437.3782814643,0.01174521396482663,1.43042,0.011683448970562609,183.41641135073732
4387926.607618088,0.01039316320908013,1.43042,0.010346160510341741,192.06030934016007
4594723.2175890375,0.009188705630470046,1.43042,0.009153037645983407,201.11159299536763
4811265.851529767,0.008116869771358788,1.43042,0.008089877305132066,210.58946130255816
5038013.82539924,0.007164070900844307,1.43042,0.007143698071318323,220.51401809116484
5275448.102050664,0.006317990471593868,1.43042,0.00630265332231028,230.90631467677412
5524072.311418186,0.005567467656247896,1.43042,0.005555949982980472,241.7883945137892
5784413.818783502,0.004902401087408986,1.43042,0.004893772176094602,253.18333995255247
6057024.843388328,0.0043136592806429395,1.43042,0.00430720921408196,265.11532120010594
6342483.629765448,0.003792998523055467,1.43042,0.0037881875150423683,277.609647588441
6641395.674272893,0.0033329872640128605,1.43042,0.0033294061439240515,290.69282125898576
6954395.0094329,0.002926936253018233,1.43042,0.0029242757737838587,304.3925933771998
7282145.548799895,0.002568833836772846,1.43042,0.0025668609327731966,318.7380229965174
7625342.495210155,0.002253285957695466,1.43042,0.002251825451746499,333.7595386964961
7984713.8154002335,0.0019754604946380355,1.43042,0.0019743810578515247,349.4890031259138
8361021.784122005,0.0017310356583398983,1.43042,0.0017302390743544093,365.95978058771874
8755064.601029618,0.0015161522043089849,1.43042,0.0015155651896877039,383.20680780918934
9167678.083767973,0.0013273692589942435,1.43042,0.0013269372526056498,401.26666804741717
9599737.440854011,0.001161623575534671,1.43042,0.001161306038409858,420.17766868730007
10052159.12811132,0.0010161920466818409,1.43042,0.0010159589160669777,439.9799224966414
10525902.792595804,0.0008886573077266672,1.43042,0.0008884863297859213,460.715432710709
11021973.308135753,0.0007768762638385244,1.43042,0.0007767509928664213,482.4281821267283
11541422.906803962,0.0006789513759962883,1.43042,0.0006788596775167342,505.1642263972925
12085353.410843026,0.0005932045389988094,1.43042,0.0005931374725979276,528.9717917205766
12654918.569778046,0.0005181533847979005,1.43042,0.000518104372274276,553.9013771345692
13251326.507674051,0.000452489845159958,1.43042,0.00045245405245193497,580.005861632303
13875842.285729127,0.0003950608097194333,1.43042,0.0003950346885882279,607.3406163252884
14529790.585638817,0.00034485071892209905,1.43042,0.00034483166772933003,635.9636218930651
15214558.519423606,0.00030096593611023993,1.43042,0.0003009520491760253,665.935591567997
15931598.571679486,0.00026262074892538197,1.43042,0.00026261063163219705,697.3200999161775
16682431.680492526,0.00022912485709476008,1.43042,0.00022911748969317136,730.1837176876081
17468650.463552468,0.00019987221130082848,1.43042,0.00019986684872621758,764.596153021685
18291922.59630837,0.0001743310759833366,1.43042,0.00017432717425508,800.6303993075082
19153994.349331826,0.00015203519737900682,1.43042,0.00015203235959177145,838.3628900126462
20056694.292390972,0.00013257596667531164,1.43042,0.00013257390340970905,877.8736608087678
21001937.173092123,0.00011559547668000122,1.43042,0.00011559397701157295,919.2465193380337
21991727.97831617,0.00010078037875327696,1.43042,0.00010077928904186987,962.5692229803406
23028166.187064555,0.00008785645480922603,1.43042,0.00008785566319368453,1007.93366499849
24113450.223735727,0.00007658382688776962,1.43042,0.0000765832519600069,1055.4360694561196
25249882.121278033,0.00006675273407155841,1.43042,0.00006675231660930591,1105.1771953218429
26439872.404110234,0.000058179813337661035,1.43042,0.00005817951027377116,1157.2625501925297
27685945.201167,0.000050704827272001324,1.43042,0.00005070460729785294,1211.8026140890668
28990743.59991477,0.00004418778742945981,1.43042,0.00004418762779142474,1268.9130737992919
30357035.252694663,0.000038506427499321716,1.43042,0.00003850631166570479,1328.7150682651836
31787718.247284137,0.00003355398534756721,1.43042,0.00003355390131026676,1391.3354455347971
33285827.254129726,0.000029237257473674666,1.43042,0.00002923719651240052,1456.907031823982
34854539.963289924,0.0000254748934637035,1.43042,0.00002547484924711433,1525.5689132585933
