﻿Frequency,Total,Op Amp V,Op Amp I,Rf,Rin
3485.453996328937,9.482057032786177e-9,9.054148789707164e-9,2.905958610322309e-13,2.8163442320988437e-9,5.905351035215065e-13
3821.724310634809,9.491419222002276e-9,9.064919709673928e-9,2.902746403382425e-13,2.813231083668127e-9,5.390580161731408e-13
4190.437378281414,9.50260887292597e-9,9.07779010904123e-9,2.8988987201304563e-13,2.809502055837128e-9,4.921538641143914e-13
4594.723217588982,9.515967108876278e-9,9.093150622157724e-9,2.8942932300171685e-13,2.805038590504045e-9,4.494235130894919e-13
5038.013825399179,9.531892042575432e-9,9.111456605692865e-9,2.8887855228088213e-13,2.7997007307791267e-9,4.105029755264845e-13
5524.07231141812,9.550845436586294e-9,9.133235465400243e-9,2.882205757974525e-13,2.7933238736987084e-9,3.750602419855516e-13
6057.024843388256,9.573358871142479e-9,9.15909330369189e-9,2.8743550835162377e-13,2.7857152994918538e-9,3.4279236547678215e-13
6641.395674272813,9.600038714273955e-9,9.189720051357826e-9,2.865001943019803e-13,2.776650592515102e-9,3.134227712439249e-13
7282.145548799807,9.63156890768671e-9,9.225891925212197e-9,2.853878465388956e-13,2.7658701423203755e-9,2.8669876718162015e-13
7984.713815400139,9.66871025319858e-9,9.26846968434023e-9,2.8406772323026124e-13,2.753076010797906e-9,2.6238923318269787e-13
8755.064601029513,9.7122945347352e-9,9.31839077495254e-9,2.825048845944695e-13,2.7379295749127603e-9,2.40282471771868e-13
9599.737440853896,9.763211493758298e-9,9.376653124082894e-9,2.806600872035014e-13,2.720050502330692e-9,2.201842077858138e-13
10525.902792595678,9.822386483283923e-9,9.444288174891304e-9,2.784898901431349e-13,2.6990177802823793e-9,2.0191573197547311e-13
11541.422906803826,9.890746693647345e-9,9.522320908629015e-9,2.759470636895973e-13,2.6743736763016457e-9,1.853121923929397e-13
12654.918569777896,9.969174348485566e-9,9.611715267268164e-9,2.729814033313306e-13,2.6456316274138873e-9,1.7022104797508905e-13
13875.842285728964,1.0058446403615416e-8,9.713304779112442e-9,2.6954105437096976e-13,2.6122890776731504e-9,1.565007097472822e-13
15214.558519423426,1.015916219419586e-8,9.827710437368601e-9,2.6557443756113956e-13,2.573846140689707e-9,1.4401940434791023e-13
16682.43168049233,1.0271663181922124e-8,9.955250961465576e-9,2.610328259719449e-13,2.5298305736467783e-9,1.3265429875270363e-13
18291.922596308155,1.0395952220174549e-8,1.009585416793487e-8,2.5587355067937623e-13,2.4798288456096944e-9,1.2229092004972077e-13
20056.694292390737,1.0531623003656926e-8,1.0248981602785066e-8,2.500637061740353e-13,2.4235220489337656e-9,1.1282288620947023e-13
21991.727978315914,1.067781267554268e-8,1.0413580801515784e-8,2.435840936869457e-13,2.360724116473791e-9,1.0415193167227284e-13
24113.45022373545,1.083319082211556e-8,1.0588079366768964e-8,2.3643300357992596e-13,2.291418479068686e-9,9.618816831326119e-14
26439.872404109934,1.099599536549739e-8,1.0770431577277598e-8,2.2862933189057664e-13,2.2157882699066417e-9,8.885047657712571e-14
28990.74359991444,1.1164119907686874e-8,1.095822133352934e-8,2.2021449348036565e-13,2.1342348660265597e-9,8.20668864140364e-14
31787.718247283774,1.1335248683634748e-8,1.114881592778353e-8,2.1125267049982953e-13,2.047380296348004e-9,7.577479682065094e-14
34854.53996328953,1.1507026344996835e-8,1.1339555545056038e-8,2.0182913086591921e-13,1.95605094499508e-9,6.992090494914099e-14
38217.243106348265,1.1677242824959496e-8,1.1527956248970942e-8,1.9204664015237077e-13,1.8612427767066578e-9,6.44607695647523e-14
41904.37378281432,1.1844010734311098e-8,1.1711901740331217e-8,1.8202030779200142e-13,1.7640713881950361e-9,5.93580066254921e-14
45947.23217589003,1.2005915095964554e-8,1.1889802281724391e-8,1.7187147255076026e-13,1.6657127484929353e-9,5.458318720668027e-14
50380.138253992016,1.2162122063486255e-8,1.2060706968681424e-8,1.6172137240105597e-13,1.5673418497805315e-9,5.0112560437583284e-14
55240.72311418145,1.2312442547567183e-8,1.2224365710064257e-8,1.5168532853796804e-13,1.4700763410891886e-9,4.592674469259725e-14
60570.24843388283,1.2457355862417831e-8,1.238124713243751e-8,1.4186801960531366e-13,1.3749307279032287e-9,4.2009518262405304e-14
66413.95674272843,1.2598005565446934e-8,1.253252601533153e-8,1.3236018540848423e-13,1.2827844258021722e-9,3.8346805012821075e-14
72821.4554879984,1.2736183677624197e-8,1.2680057888111431e-8,1.2323684806564322e-13,1.19436452053672e-9,3.492590460070389e-14
79847.13815400175,1.2874320703635483e-8,1.2826359425854485e-8,1.14556930006849e-13,1.1102420658219767e-9,3.1734973210440935e-14
87550.64601029553,1.3015498421845317e-8,1.2974612486790208e-8,1.0636401422415575e-13,1.0308394513914133e-9,2.876272757535978e-14
95997.3744085394,1.316350175019776e-8,1.3128708605997304e-8,9.868793768506032e-14,9.564458457521617e-10,2.599832505031608e-14
105259.02792595724,1.3322926615071846e-8,1.3293351068119084e-8,9.154692004474482e-14,8.872378268520299e-10,2.3431364479973338e-14
115414.22906803874,1.3499364133900531e-8,1.3474234836508223e-8,8.494998509850654e-14,8.233028498727509e-10,2.1051953376953777e-14
126549.18569777948,1.3699689279278648e-8,1.3678332331037309e-8,7.889951151497101e-14,7.646639679632568e-10,1.8850793150865166e-14
138758.42285729022,1.393249705571511e-8,1.3914327841177398e-8,7.33938389094461e-14,7.113050893084957e-10,1.6819243386337537e-14
152145.5851942349,1.4208755528425683e-8,1.419326965221057e-8,6.842995141653192e-14,6.631969852914674e-10,1.494933718882282e-14
166824.316804924,1.4542791163576473e-8,1.452955509665623e-8,6.400637097038094e-14,6.203253310618129e-10,1.3233731939878417e-14
182919.22596308234,1.4953804222137424e-8,1.494244605348222e-8,6.012653858544722e-14,5.827234756189838e-10,1.1665593102336971e-14
200566.9429239082,1.546826334738801e-8,1.5458463842794736e-8,5.680319027985987e-14,5.505148515923041e-10,1.0238422135436977e-14
219917.27978316005,1.612381767939919e-8,1.6115301671413827e-8,5.406463818672421e-14,5.239738493756572e-10,8.945851410699921e-15
241134.5022373555,1.6975939986903206e-8,1.6968467929005888e-8,5.1964639530229164e-14,5.036214634792209e-10,7.781436940035918e-15
264398.7240411004,1.8109703864673566e-8,1.8103063129226778e-8,5.059908118265428e-14,4.903869928913539e-10,6.738481615751353e-15
289907.43599914556,1.9661627389374903e-8,1.965562248520038e-8,5.013583967984971e-14,4.858974329579875e-10,5.809916627213482e-15
317877.182472839,2.1861794087845014e-8,2.1856234316565222e-8,5.087008142614709e-14,4.930134238733621e-10,4.988257791222443e-15
348545.39963289665,2.5115069133046594e-8,2.5109751615743667e-8,5.3323339407787116e-14,5.167894643919708e-10,4.2656395421226706e-15
382172.4310634841,3.012695934043207e-8,3.012164969328666e-8,5.83592939171498e-14,5.655960144411564e-10,3.6339159410277655e-15
419043.73782814486,3.773147171718261e-8,3.7725937022981565e-8,6.668089875721105e-14,6.462458341249713e-10,3.0848084577568022e-15
459472.3217589021,4.532898434714661e-8,4.532345086503456e-8,7.307901393283896e-14,7.082539257308773e-10,2.610076112998235e-15
503801.38253992214,4.040633048843537e-8,4.040222593865061e-8,5.942444360426156e-14,5.759190388881094e-10,2.201684701259243e-15
552407.2311418166,2.7457521101563634e-8,2.7455200297200522e-8,3.6834894960844424e-14,3.5698975062633413e-10,1.851956755444809e-15
605702.4843388306,1.8230387144752633e-8,1.8229105088348605e-8,2.2308098845763702e-14,2.1620158418701323e-10,1.5536906288260274e-15
664139.5674272869,1.265678418512095e-8,1.2656043649195141e-8,1.4126906956832863e-14,1.3691259326250498e-10,1.3002437305354608e-15
728214.5548799868,9.161541773664767e-9,9.16109582578738e-9,9.326951800416362e-15,9.039325891586973e-11,1.0855803529092473e-15
798471.3815400205,6.840388723910869e-9,6.840111727908494e-9,6.351721227943943e-15,6.155845916276013e-11,9.042881682636273e-16
875506.4601029586,5.222796802216582e-9,5.222620864051679e-9,4.423302286928244e-15,4.286895841657661e-11,7.515693877003203e-16
959973.7440853976,4.052699993933022e-9,4.052586426241428e-9,3.130511245405489e-15,3.033972080056721e-11,6.232131126382863e-16
1052590.2792595765,3.181870276265106e-9,3.181796104733811e-9,2.2416923523317028e-15,2.1725627144872663e-11,5.155550196547265e-16
1154142.290680392,2.5194810537175804e-9,2.519432199413214e-9,1.6189131235591135e-15,1.5689888429963335e-11,4.254296158253524e-16
1265491.8569778,2.0071055433767325e-9,2.007073169650273e-9,1.1762466078372218e-15,1.1399733422702696e-11,3.5011920335830207e-16
1387584.2285729079,1.6055927571177522e-9,1.605571215244935e-9,8.581765750498661e-16,8.317119998470873e-12,2.873026088084117e-16
1521455.8519423553,1.28779464074023e-9,1.2877802687820825e-9,6.277673875683921e-16,6.084082047135229e-12,2.350057807628589e-16
1668243.1680492468,1.0343360834725086e-9,1.0343264817599363e-9,4.598570658234669e-16,4.456759261200124e-12,1.9155559032112894e-16
1829192.2596308307,8.31047923620626e-10,8.310415066830693e-10,3.3697275292348117e-16,3.2658113770080663e-12,1.5553758727076104e-16
2005669.42923909,6.673499545874395e-10,6.673456684349033e-10,2.467906005807684e-16,2.391800358108909e-12,1.2575805311556845e-16
2199172.7978316094,5.351983991873185e-10,5.351955400239115e-10,1.8050739319559943e-16,1.749408797055232e-12,1.0121041925309547e-16
2411345.0223735645,4.2838082325227875e-10,4.283789197094052e-10,1.3176939213149214e-16,1.2770586827303014e-12,8.10459491800424e-17
2643987.2404110143,3.4203189310581954e-10,3.4203062893345635e-10,9.595215420024144e-17,9.299316758311859e-13,6.454848245177113e-17
2899074.3599914666,2.722937409823772e-10,2.722929038710725e-10,6.96672682431134e-17,6.751885879779046e-13,5.111297428740992e-17
3178771.8247284023,2.1607363822751526e-10,2.1607308570216612e-10,5.041913619375063e-17,4.886430347021571e-13,4.0227515297529146e-17
3485453.9963289797,1.7086873539798417e-10,1.708683719710728e-10,3.636288189420167e-17,3.5241518004231885e-13,3.1458469087339136e-17
3821724.3106348556,1.3463790765964314e-10,1.3463766946872156e-10,2.613152582623506e-17,2.532567799666506e-13,2.443832172993803e-17
4190437.3782814643,1.0570708123154942e-10,1.0570692568343966e-10,1.871125559655387e-17,1.8134235149631695e-13,1.885580574800952e-17
4594723.2175890375,8.269845189284066e-11,8.269835067423041e-11,1.3350496679366619e-17,1.2938792102898758e-13,1.4447854615102972e-17
5038013.82539924,6.447670374747576e-11,6.447663810759875e-11,9.49300835113145e-18,9.200261566013799e-14,1.0992969832203792e-17
5524072.311418186,5.010725133565414e-11,5.010720890623106e-11,6.728254981804005e-18,6.520768066958915e-14,8.305640089543306e-18
6057024.843388328,3.8822960869440104e-11,3.8822933525786456e-11,4.754350577379572e-18,4.607735216329749e-14,6.2315303418030005e-18
6641395.674272893,2.99969029490962e-11,2.9996885376115746e-11,3.3502679113221485e-18,3.24695185764929e-14,4.643242255012213e-18
7282145.548799895,2.311951579640892e-11,2.311950453095561e-11,2.3549534614461845e-18,2.2823310608920033e-14,3.4365218171421233e-18
7984713.8154002335,1.7779151657534716e-11,1.7779144451742318e-11,1.6516386016706557e-18,1.600705128009731e-14,2.5268457980605112e-18
8755064.601029618,1.3645374438770067e-11,1.3645369838780862e-11,1.156085026403345e-18,1.1204335066443955e-14,1.8463539101824734e-18
9599737.440854011,1.0454615111244813e-11,1.0454612179812038e-11,8.078163537381367e-19,7.829047944331123e-15,1.3411110425911295e-18
10525902.792595804,7.997917634842464e-12,7.997915769540005e-12,5.636139669648603e-19,5.462331567123652e-15,9.686894209931936e-19
11541422.906803962,6.1105635693367065e-12,6.110562383966594e-12,3.9272294441633097e-19,3.806120966042023e-15,6.960594926464488e-19
12654918.569778046,4.663381215624671e-12,4.663380463181104e-12,2.7334182205466564e-19,2.6491246681922368e-15,4.977747126815647e-19
13875842.285729127,3.555547764652214e-12,3.5555472874748996e-12,1.9006922948229224e-19,1.842078466811175e-15,3.5443140302503454e-19
15214558.519423606,2.7086937273584603e-12,2.7086934249921594e-12,1.3205818004344545e-19,1.2798575050096021e-15,2.513813824726957e-19
16682431.680492526,2.06212390531741e-12,2.0621237138528408e-12,9.16896369514136e-20,8.886209846695293e-16,1.7767242435803355e-19
18291922.59630837,1.5689798050189288e-12,1.5689796838500293e-12,6.362428651926626e-20,6.166223143146056e-16,1.2518990714297033e-19
20056694.292390972,1.1931837767223537e-12,1.1931837000778047e-12,4.412787090600529e-20,4.276704914497943e-16,8.797237720075057e-20
21991727.97831617,9.070234572405129e-13,9.070234087794926e-13,3.059315063742708e-20,2.9649714566957454e-16,6.167418390958144e-20
24113450.223735727,6.892544726204002e-13,6.892544419899265e-13,2.12024145984885e-20,2.0548571424559424e-16,4.314980419921858e-20
26439872.404110234,5.236183393937651e-13,5.236183200389493e-13,1.4689960049713396e-20,1.4236948905195887e-16,3.01367497143367e-20
28990743.59991477,3.976900990921134e-13,3.9769008686513827e-13,1.017537853828754e-20,9.861588721165575e-17,2.1016762122578902e-20
31787718.247284137,3.0198587585065843e-13,3.019858681281048e-13,7.04680821044751e-21,6.829497704373499e-17,1.4638048255543664e-20
34854539.963289924,2.292740460500674e-13,2.292740411733315e-13,4.879336123651804e-21,4.728866439978005e-17,1.0184322060232809e-20
