%FSLAX25Y25*%
%MOIN*%
G70*
G01*
G75*
G04 Layer_Physical_Order=1*
G04 Layer_Color=255*
%ADD10R,0.03740X0.03937*%
%ADD11R,0.03937X0.03740*%
%ADD12R,0.04331X0.02559*%
%ADD13R,0.20000X0.09500*%
%ADD14R,0.20000X0.04500*%
%ADD15C,0.01500*%
%ADD16C,0.05000*%
%ADD17C,0.01000*%
%ADD18C,0.03400*%
%ADD19C,0.25000*%
%ADD20C,0.06000*%
%ADD21C,0.05906*%
%ADD22R,0.05906X0.05906*%
%ADD23C,0.39370*%
G36*
X195000Y98000D02*
X190000D01*
Y92250D01*
Y86500D01*
X195000D01*
Y77950D01*
X190473D01*
X190414Y77995D01*
X189635Y78318D01*
X188800Y78428D01*
X62150D01*
X61314Y78318D01*
X60536Y77995D01*
X60242Y77770D01*
X59481D01*
Y77770D01*
X58719D01*
X58619Y77870D01*
Y77870D01*
X53082D01*
Y76840D01*
X50000D01*
Y77000D01*
X49890D01*
Y78000D01*
X46724D01*
Y80000D01*
X49890D01*
Y81279D01*
X49690D01*
Y84820D01*
X49080D01*
Y87582D01*
X50170D01*
Y88770D01*
X51830D01*
Y87582D01*
X57170D01*
Y88770D01*
X58830D01*
Y87582D01*
X64170D01*
Y93119D01*
D01*
Y93119D01*
X64170Y93119D01*
Y93881D01*
X64170D01*
Y99418D01*
X58830D01*
Y93881D01*
X58830Y93881D01*
X58830Y93119D01*
X58830D01*
Y91931D01*
X57170D01*
Y92974D01*
X57170D01*
X57170Y92974D01*
X57170Y93119D01*
D01*
X57370Y93681D01*
X57370Y93826D01*
X57370Y93826D01*
X57370D01*
Y95650D01*
X51630D01*
Y93826D01*
X51630D01*
X51630Y93826D01*
X51630Y93681D01*
X51830Y93119D01*
D01*
X51830Y92974D01*
X51830Y92974D01*
X51830D01*
Y91931D01*
X50170D01*
Y92974D01*
X50170D01*
X50170Y92974D01*
X50170Y93119D01*
D01*
X50370Y93681D01*
X50370Y93826D01*
X50370Y93826D01*
X50370D01*
Y95650D01*
X44630D01*
Y93826D01*
X44630D01*
X44630Y93826D01*
X44630Y93681D01*
Y93681D01*
Y93681D01*
D01*
D01*
X44803Y93092D01*
X44711Y93000D01*
X44000D01*
Y93000D01*
X12095D01*
X11657Y93500D01*
X7500D01*
Y94500D01*
X6500D01*
Y98403D01*
X6456Y98397D01*
X5832Y98138D01*
X5000Y98694D01*
Y145000D01*
X54086D01*
X54313Y144026D01*
X52135Y142952D01*
X49881Y141446D01*
X47842Y139658D01*
X46054Y137619D01*
X44548Y135365D01*
X43349Y132933D01*
X42477Y130365D01*
X41948Y127706D01*
X41836Y126000D01*
X83164D01*
X83052Y127706D01*
X82523Y130365D01*
X81652Y132933D01*
X80452Y135365D01*
X78946Y137619D01*
X77158Y139658D01*
X75119Y141446D01*
X72865Y142952D01*
X70687Y144026D01*
X70914Y145000D01*
X129620D01*
X129782Y144013D01*
X129644Y143966D01*
X127235Y142779D01*
X125003Y141287D01*
X122984Y139516D01*
X121213Y137497D01*
X119721Y135265D01*
X118534Y132856D01*
X117671Y130313D01*
X117147Y127680D01*
X116971Y125000D01*
X117147Y122320D01*
X117671Y119687D01*
X118534Y117144D01*
X119721Y114735D01*
X121213Y112503D01*
X122984Y110484D01*
X125003Y108713D01*
X127235Y107221D01*
X129644Y106034D01*
X132187Y105171D01*
X134820Y104647D01*
X137500Y104471D01*
X140180Y104647D01*
X142813Y105171D01*
X145356Y106034D01*
X147765Y107221D01*
X149997Y108713D01*
X152016Y110484D01*
X153787Y112503D01*
X155279Y114735D01*
X156466Y117144D01*
X157329Y119687D01*
X157853Y122320D01*
X158029Y125000D01*
X157853Y127680D01*
X157329Y130313D01*
X156466Y132856D01*
X155279Y135265D01*
X153787Y137497D01*
X152016Y139516D01*
X149997Y141287D01*
X147765Y142779D01*
X145356Y143966D01*
X145218Y144013D01*
X145380Y145000D01*
X195000D01*
Y98000D01*
D02*
G37*
G36*
X53082Y72530D02*
X58619D01*
Y72630D01*
X59481D01*
Y72630D01*
X60242D01*
X60536Y72405D01*
X61314Y72082D01*
X62150Y71972D01*
X188800D01*
X189390Y72050D01*
X195000D01*
Y63500D01*
X190000D01*
Y57750D01*
Y52000D01*
X195000D01*
Y5000D01*
X5000D01*
Y65000D01*
X34630D01*
Y65000D01*
Y64819D01*
X34630Y64293D01*
X34630Y64293D01*
X34630D01*
Y62850D01*
X40370D01*
Y64293D01*
X40370D01*
X40370Y64293D01*
X40370Y64819D01*
X40551Y65000D01*
X50000D01*
Y73680D01*
X53082D01*
Y72530D01*
D02*
G37*
%LPC*%
G36*
X188000Y91250D02*
X178000D01*
Y86500D01*
X188000D01*
Y91250D01*
D02*
G37*
G36*
X46500Y99618D02*
X44630D01*
Y97650D01*
X46500D01*
Y99618D01*
D02*
G37*
G36*
X8500Y98403D02*
Y95500D01*
X11403D01*
X11397Y95544D01*
X10994Y96517D01*
X10353Y97353D01*
X9517Y97994D01*
X8544Y98397D01*
X8500Y98403D01*
D02*
G37*
G36*
X188000Y98000D02*
X178000D01*
Y93250D01*
X188000D01*
Y98000D01*
D02*
G37*
G36*
Y56750D02*
X178000D01*
Y52000D01*
X188000D01*
Y56750D01*
D02*
G37*
G36*
X180000Y33341D02*
X177913Y33177D01*
X175877Y32688D01*
X173943Y31887D01*
X172158Y30793D01*
X170566Y29434D01*
X169207Y27842D01*
X168113Y26057D01*
X167312Y24123D01*
X166823Y22087D01*
X166659Y20000D01*
X166823Y17913D01*
X167312Y15877D01*
X168113Y13943D01*
X169207Y12158D01*
X170566Y10566D01*
X172158Y9207D01*
X173943Y8113D01*
X175877Y7312D01*
X177913Y6823D01*
X180000Y6659D01*
X182087Y6823D01*
X184123Y7312D01*
X186057Y8113D01*
X187842Y9207D01*
X189434Y10566D01*
X190793Y12158D01*
X191887Y13943D01*
X192688Y15877D01*
X193177Y17913D01*
X193341Y20000D01*
X193177Y22087D01*
X192688Y24123D01*
X191887Y26057D01*
X190793Y27842D01*
X189434Y29434D01*
X187842Y30793D01*
X186057Y31887D01*
X184123Y32688D01*
X182087Y33177D01*
X180000Y33341D01*
D02*
G37*
G36*
X20000D02*
X17913Y33177D01*
X15877Y32688D01*
X13943Y31887D01*
X12158Y30793D01*
X10566Y29434D01*
X9207Y27842D01*
X8113Y26057D01*
X7312Y24123D01*
X6823Y22087D01*
X6659Y20000D01*
X6823Y17913D01*
X7312Y15877D01*
X8113Y13943D01*
X9207Y12158D01*
X10566Y10566D01*
X12158Y9207D01*
X13943Y8113D01*
X15877Y7312D01*
X17913Y6823D01*
X20000Y6659D01*
X22087Y6823D01*
X24123Y7312D01*
X26057Y8113D01*
X27842Y9207D01*
X29434Y10566D01*
X30793Y12158D01*
X31887Y13943D01*
X32688Y15877D01*
X33177Y17913D01*
X33341Y20000D01*
X33177Y22087D01*
X32688Y24123D01*
X31887Y26057D01*
X30793Y27842D01*
X29434Y29434D01*
X27842Y30793D01*
X26057Y31887D01*
X24123Y32688D01*
X22087Y33177D01*
X20000Y33341D01*
D02*
G37*
G36*
X40370Y60850D02*
X38500D01*
Y58882D01*
X40370D01*
Y60850D01*
D02*
G37*
G36*
X36500D02*
X34630D01*
Y58882D01*
X36500D01*
Y60850D01*
D02*
G37*
G36*
X188000Y63500D02*
X178000D01*
Y58750D01*
X188000D01*
Y63500D01*
D02*
G37*
G36*
X50370Y99618D02*
X48500D01*
Y97650D01*
X50370D01*
Y99618D01*
D02*
G37*
G36*
X94000Y113855D02*
X93968Y113851D01*
X93007Y113453D01*
X92181Y112819D01*
X91547Y111993D01*
X91149Y111032D01*
X91145Y111000D01*
X94000D01*
Y113855D01*
D02*
G37*
G36*
X108753Y113753D02*
X101247D01*
Y106247D01*
X108753D01*
Y113753D01*
D02*
G37*
G36*
X96000Y113855D02*
Y111000D01*
X98855D01*
X98851Y111032D01*
X98453Y111993D01*
X97819Y112819D01*
X96993Y113453D01*
X96032Y113851D01*
X96000Y113855D01*
D02*
G37*
G36*
X180000Y143341D02*
X177913Y143177D01*
X175877Y142688D01*
X173943Y141887D01*
X172158Y140793D01*
X170566Y139434D01*
X169207Y137842D01*
X168113Y136057D01*
X167312Y134123D01*
X166823Y132087D01*
X166659Y130000D01*
X166823Y127913D01*
X167312Y125877D01*
X168113Y123943D01*
X169207Y122158D01*
X170566Y120566D01*
X172158Y119207D01*
X173943Y118113D01*
X175877Y117312D01*
X177913Y116823D01*
X180000Y116659D01*
X182087Y116823D01*
X184123Y117312D01*
X186057Y118113D01*
X187842Y119207D01*
X189434Y120566D01*
X190793Y122158D01*
X191887Y123943D01*
X192688Y125877D01*
X193177Y127913D01*
X193341Y130000D01*
X193177Y132087D01*
X192688Y134123D01*
X191887Y136057D01*
X190793Y137842D01*
X189434Y139434D01*
X187842Y140793D01*
X186057Y141887D01*
X184123Y142688D01*
X182087Y143177D01*
X180000Y143341D01*
D02*
G37*
G36*
X20000D02*
X17913Y143177D01*
X15877Y142688D01*
X13943Y141887D01*
X12158Y140793D01*
X10566Y139434D01*
X9207Y137842D01*
X8113Y136057D01*
X7312Y134123D01*
X6823Y132087D01*
X6659Y130000D01*
X6823Y127913D01*
X7312Y125877D01*
X8113Y123943D01*
X9207Y122158D01*
X10566Y120566D01*
X12158Y119207D01*
X13943Y118113D01*
X15877Y117312D01*
X17913Y116823D01*
X20000Y116659D01*
X22087Y116823D01*
X24123Y117312D01*
X26057Y118113D01*
X27842Y119207D01*
X29434Y120566D01*
X30793Y122158D01*
X31887Y123943D01*
X32688Y125877D01*
X33177Y127913D01*
X33341Y130000D01*
X33177Y132087D01*
X32688Y134123D01*
X31887Y136057D01*
X30793Y137842D01*
X29434Y139434D01*
X27842Y140793D01*
X26057Y141887D01*
X24123Y142688D01*
X22087Y143177D01*
X20000Y143341D01*
D02*
G37*
G36*
X98855Y109000D02*
X96000D01*
Y106145D01*
X96032Y106149D01*
X96993Y106547D01*
X97819Y107181D01*
X98453Y108007D01*
X98851Y108968D01*
X98855Y109000D01*
D02*
G37*
G36*
X57370Y99618D02*
X55500D01*
Y97650D01*
X57370D01*
Y99618D01*
D02*
G37*
G36*
X53500D02*
X51630D01*
Y97650D01*
X53500D01*
Y99618D01*
D02*
G37*
G36*
X61500Y124000D02*
X41836D01*
X41948Y122294D01*
X42477Y119635D01*
X43349Y117067D01*
X44548Y114635D01*
X46054Y112381D01*
X47842Y110342D01*
X49881Y108554D01*
X52135Y107048D01*
X54567Y105849D01*
X57135Y104977D01*
X59794Y104448D01*
X61500Y104336D01*
Y124000D01*
D02*
G37*
G36*
X94000Y109000D02*
X91145D01*
X91149Y108968D01*
X91547Y108007D01*
X92181Y107181D01*
X93007Y106547D01*
X93968Y106149D01*
X94000Y106145D01*
Y109000D01*
D02*
G37*
G36*
X83164Y124000D02*
X63500D01*
Y104336D01*
X65206Y104448D01*
X67865Y104977D01*
X70433Y105849D01*
X72865Y107048D01*
X75119Y108554D01*
X77158Y110342D01*
X78946Y112381D01*
X80452Y114635D01*
X81652Y117067D01*
X82523Y119635D01*
X83052Y122294D01*
X83164Y124000D01*
D02*
G37*
%LPD*%
D10*
X47500Y96650D02*
D03*
Y90350D02*
D03*
X37500Y68150D02*
D03*
Y61850D02*
D03*
X61500Y90350D02*
D03*
Y96650D02*
D03*
X54500Y90350D02*
D03*
Y96650D02*
D03*
X29000Y77850D02*
D03*
Y84150D02*
D03*
X20500Y77850D02*
D03*
Y84150D02*
D03*
D11*
X62150Y75200D02*
D03*
X55850D02*
D03*
D12*
X46724Y75260D02*
D03*
Y79000D02*
D03*
Y82740D02*
D03*
X37276D02*
D03*
Y75260D02*
D03*
D13*
X189000Y57750D02*
D03*
Y92250D02*
D03*
D14*
Y75000D02*
D03*
D15*
X47500Y83516D02*
Y90350D01*
X46724Y82740D02*
X47500Y83516D01*
X37276Y75260D02*
X37500Y75035D01*
Y68150D02*
Y75035D01*
X36260Y82740D02*
X37276D01*
X34850Y84150D02*
X36260Y82740D01*
X29000Y84150D02*
X34850D01*
X8150D02*
X29000D01*
X8000Y84000D02*
X8150Y84150D01*
X43240Y75260D02*
X46724D01*
X39500Y79000D02*
X43240Y75260D01*
X20500Y79000D02*
X39500D01*
X46724Y75260D02*
X55791D01*
X55850Y75200D01*
X188800D02*
X189000Y75000D01*
X47500Y90350D02*
X61500D01*
X61500Y90350D01*
D16*
X62150Y75200D02*
X188800D01*
D17*
X0Y0D02*
Y150000D01*
X200000D01*
Y0D02*
Y150000D01*
X0Y0D02*
X200000D01*
D18*
X160000Y110000D02*
D03*
Y45000D02*
D03*
X40000D02*
D03*
Y110000D02*
D03*
X70000Y65000D02*
D03*
X80000D02*
D03*
X90000D02*
D03*
X100000D02*
D03*
X110000D02*
D03*
X120000D02*
D03*
X130000D02*
D03*
X140000D02*
D03*
X150000D02*
D03*
X160000D02*
D03*
X170000D02*
D03*
Y85000D02*
D03*
X160000D02*
D03*
X150000D02*
D03*
X140000D02*
D03*
X130000D02*
D03*
X120000D02*
D03*
X110000D02*
D03*
X100000D02*
D03*
X90000D02*
D03*
X80000D02*
D03*
X70000D02*
D03*
X61500Y96500D02*
D03*
X37500Y68150D02*
D03*
D19*
X20000Y20000D02*
D03*
Y130000D02*
D03*
X180000D02*
D03*
Y20000D02*
D03*
D20*
X7500Y84500D02*
D03*
Y94500D02*
D03*
D21*
X95000Y110000D02*
D03*
D22*
X105000D02*
D03*
D23*
X62500Y125000D02*
D03*
X137500D02*
D03*
M02*
